Clustering Traffic Accidents Using K-Means Clustering
…
df <- read.csv("Fatalities.csv")  # Use your actual CSV file path

Fatalities_Grouped_By_State <- df %>%
  group_by(state, year) %>%
  summarise(
    afatal = sum(afatal, na.rm = TRUE),
    fatal1517 = sum(fatal1517, na.rm = TRUE),
    fatal1820 = sum(fatal1820, na.rm = TRUE),
    .groups = "drop"
  )

print(Fatalities_Grouped_By_State)

# A tibble: 336 × 5
   state  year afatal fatal1517 fatal1820
   <chr> <int>  <dbl>     <int>     <int>
 1 al     1982   309.        53        99
 2 al     1983   342.        71       108
 3 al     1984   305.        49       103
 4 al     1985   277.        66       100
 5 al     1986   361.        82       120
 6 al     1987   368.        94       127
 7 al     1988   298.        66       105
 8 ar     1982   271.        36        62
 9 ar     1983   248.        35        65
10 ar     1984   183.        34        72
# ℹ 326 more rows
…
